scenario,alarms,false,true
./alarms_n_3_w_100_t_False_LID-DS-2021-sorted_Bruteforce_CWE-307.json,22,3,19
./alarms_n_3_w_100_t_False_LID-DS-2021-sorted_CVE-2014-0160.json,18,18,0
./alarms_n_3_w_100_t_False_LID-DS-2021-sorted_CVE-2017-7529.json,119,119,0
./alarms_n_3_w_100_t_False_LID-DS-2021-sorted_CVE-2018-3760.json,301,22,279
./alarms_n_3_w_100_t_False_LID-DS-2021-sorted_CVE-2019-5418.json,25,25,0
./alarms_n_3_w_100_t_False_LID-DS-2021-sorted_CVE-2020-13942.json,120,3,117
./alarms_n_3_w_100_t_False_LID-DS-2021-sorted_CVE-2020-23839.json,156,36,120
./alarms_n_3_w_100_t_False_LID-DS-2021-sorted_CVE-2020-9484.json,310,1,309
./alarms_n_3_w_100_t_False_LID-DS-2021-sorted_CWE-89-SQL-injection.json,1136,64,1072
./alarms_n_3_w_100_t_False_LID-DS-2021-sorted_EPS_CWE-434.json,424,12,412
./alarms_n_3_w_100_t_False_LID-DS-2021-sorted_Juice-Shop.json,135,19,116
./alarms_n_3_w_100_t_False_LID-DS-2021-sorted_PHP_CWE-434.json,276,1,275
./alarms_n_3_w_100_t_False_LID-DS-2021-sorted_ZipSlip.json,5,5,0
./alarms_n_3_w_100_t_True_LID-DS-2021-sorted_Bruteforce_CWE-307.json,277,277,0
./alarms_n_3_w_100_t_True_LID-DS-2021-sorted_CVE-2014-0160.json,131,11,120
./alarms_n_3_w_100_t_True_LID-DS-2021-sorted_CVE-2017-7529.json,119,119,0
./alarms_n_3_w_100_t_True_LID-DS-2021-sorted_CVE-2018-3760.json,258,258,0
./alarms_n_3_w_100_t_True_LID-DS-2021-sorted_CVE-2019-5418.json,132,24,108
./alarms_n_3_w_100_t_True_LID-DS-2021-sorted_CVE-2020-13942.json,375,1,374
./alarms_n_3_w_100_t_True_LID-DS-2021-sorted_CVE-2020-23839.json,1056,5,1051
./alarms_n_3_w_100_t_True_LID-DS-2021-sorted_CVE-2020-9484.json,528,528,0
./alarms_n_3_w_100_t_True_LID-DS-2021-sorted_CWE-89-SQL-injection.json,1550,2,1548
./alarms_n_3_w_100_t_True_LID-DS-2021-sorted_EPS_CWE-434.json,532,3,529
./alarms_n_3_w_100_t_True_LID-DS-2021-sorted_Juice-Shop.json,129,8,121
./alarms_n_3_w_100_t_True_LID-DS-2021-sorted_PHP_CWE-434.json,313,313,0
./alarms_n_3_w_100_t_True_LID-DS-2021-sorted_ZipSlip.json,494,3,491
./alarms_n_5_w_100_t_False_LID-DS-2021-sorted_Bruteforce_CWE-307.json,25,15,10
./alarms_n_5_w_100_t_False_LID-DS-2021-sorted_CVE-2014-0160.json,2,2,0
./alarms_n_5_w_100_t_False_LID-DS-2021-sorted_CVE-2017-7529.json,119,119,0
./alarms_n_5_w_100_t_False_LID-DS-2021-sorted_CVE-2018-3760.json,228,19,209
./alarms_n_5_w_100_t_False_LID-DS-2021-sorted_CVE-2019-5418.json,48,39,9
./alarms_n_5_w_100_t_False_LID-DS-2021-sorted_CVE-2020-13942.json,179,40,139
./alarms_n_5_w_100_t_False_LID-DS-2021-sorted_CVE-2020-23839.json,164,34,130
./alarms_n_5_w_100_t_False_LID-DS-2021-sorted_CVE-2020-9484.json,327,327,0
./alarms_n_5_w_100_t_False_LID-DS-2021-sorted_CWE-89-SQL-injection.json,247,2,245
./alarms_n_5_w_100_t_False_LID-DS-2021-sorted_EPS_CWE-434.json,156,18,138
./alarms_n_5_w_100_t_False_LID-DS-2021-sorted_Juice-Shop.json,113,28,85
./alarms_n_5_w_100_t_False_LID-DS-2021-sorted_PHP_CWE-434.json,172,15,157
./alarms_n_5_w_100_t_False_LID-DS-2021-sorted_ZipSlip.json,6,6,0
./alarms_n_5_w_100_t_True_LID-DS-2021-sorted_Bruteforce_CWE-307.json,286,2,284
./alarms_n_5_w_100_t_True_LID-DS-2021-sorted_CVE-2014-0160.json,132,12,120
./alarms_n_5_w_100_t_True_LID-DS-2021-sorted_CVE-2017-7529.json,119,119,0
./alarms_n_5_w_100_t_True_LID-DS-2021-sorted_CVE-2018-3760.json,381,27,354
./alarms_n_5_w_100_t_True_LID-DS-2021-sorted_CVE-2019-5418.json,139,15,124
./alarms_n_5_w_100_t_True_LID-DS-2021-sorted_CVE-2020-13942.json,296,296,0
./alarms_n_5_w_100_t_True_LID-DS-2021-sorted_CVE-2020-23839.json,1051,11,1040
./alarms_n_5_w_100_t_True_LID-DS-2021-sorted_CVE-2020-9484.json,426,426,0
./alarms_n_5_w_100_t_True_LID-DS-2021-sorted_CWE-89-SQL-injection.json,1071,1,1070
./alarms_n_5_w_100_t_True_LID-DS-2021-sorted_EPS_CWE-434.json,440,5,435
./alarms_n_5_w_100_t_True_LID-DS-2021-sorted_Juice-Shop.json,120,11,109
./alarms_n_5_w_100_t_True_LID-DS-2021-sorted_PHP_CWE-434.json,314,5,309
./alarms_n_5_w_100_t_True_LID-DS-2021-sorted_ZipSlip.json,1454,25,1429
./alarms_n_7_w_100_t_False_LID-DS-2021-sorted_Bruteforce_CWE-307.json,10,9,1
./alarms_n_7_w_100_t_False_LID-DS-2021-sorted_CVE-2014-0160.json,6,6,0
./alarms_n_7_w_100_t_False_LID-DS-2021-sorted_CVE-2017-7529.json,124,5,119
./alarms_n_7_w_100_t_False_LID-DS-2021-sorted_CVE-2018-3760.json,142,2,140
./alarms_n_7_w_100_t_False_LID-DS-2021-sorted_CVE-2019-5418.json,56,49,7
./alarms_n_7_w_100_t_False_LID-DS-2021-sorted_CVE-2020-13942.json,164,44,120
./alarms_n_7_w_100_t_False_LID-DS-2021-sorted_CVE-2020-23839.json,167,42,125
./alarms_n_7_w_100_t_False_LID-DS-2021-sorted_CVE-2020-9484.json,348,7,341
./alarms_n_7_w_100_t_False_LID-DS-2021-sorted_CWE-89-SQL-injection.json,235,235,0
./alarms_n_7_w_100_t_False_LID-DS-2021-sorted_EPS_CWE-434.json,82,16,66
./alarms_n_7_w_100_t_False_LID-DS-2021-sorted_Juice-Shop.json,87,3,84
./alarms_n_7_w_100_t_False_LID-DS-2021-sorted_PHP_CWE-434.json,313,2,311
./alarms_n_7_w_100_t_False_LID-DS-2021-sorted_ZipSlip.json,27,27,0
./alarms_n_7_w_100_t_True_LID-DS-2021-sorted_Bruteforce_CWE-307.json,390,2,388
./alarms_n_7_w_100_t_True_LID-DS-2021-sorted_CVE-2014-0160.json,206,14,192
./alarms_n_7_w_100_t_True_LID-DS-2021-sorted_CVE-2017-7529.json,124,5,119
./alarms_n_7_w_100_t_True_LID-DS-2021-sorted_CVE-2018-3760.json,376,36,340
./alarms_n_7_w_100_t_True_LID-DS-2021-sorted_CVE-2019-5418.json,59,24,35
./alarms_n_7_w_100_t_True_LID-DS-2021-sorted_CVE-2020-13942.json,294,18,276
./alarms_n_7_w_100_t_True_LID-DS-2021-sorted_CVE-2020-23839.json,1043,28,1015
./alarms_n_7_w_100_t_True_LID-DS-2021-sorted_CVE-2020-9484.json,331,331,0
./alarms_n_7_w_100_t_True_LID-DS-2021-sorted_CWE-89-SQL-injection.json,1071,1,1070
./alarms_n_7_w_100_t_True_LID-DS-2021-sorted_EPS_CWE-434.json,456,9,447
./alarms_n_7_w_100_t_True_LID-DS-2021-sorted_Juice-Shop.json,99,16,83
./alarms_n_7_w_100_t_True_LID-DS-2021-sorted_PHP_CWE-434.json,247,3,244
./alarms_n_7_w_100_t_True_LID-DS-2021-sorted_ZipSlip.json,1190,62,1128
