algorithm,enabled_features,percent_classified,eps,min_samples,clusters,scenario,n,t,full_spec
birch,"syscall_histogram, trigram_match",1.0,0.2,9,2,CVE-2020-9484,5,True,5True
birch,"syscall_histogram, trigram_match",1.0,0.2,9,1,CVE-2020-13942,5,True,5True
birch,"syscall_histogram, trigram_match",1.0,0.2,9,3,CVE-2017-7529,5,True,5True
birch,"syscall_histogram, trigram_match",0.972027972027972,0.2,9,2,BruteforceCWE-307,5,True,5True
birch,"syscall_histogram, trigram_match",0.32089552238806,0.2,9,4,CVE-2014-0160,5,True,5True
birch,"syscall_histogram, trigram_match",0.253263707571802,0.2,9,3,CVE-2018-3760,5,True,5True
birch,"syscall_histogram, trigram_match",0.0909090909090909,0.2,9,3,EPSCWE-434,5,True,5True
birch,"syscall_histogram, trigram_match",0.0632911392405063,0.2,9,3,PHPCWE-434,5,True,5True
birch,"syscall_histogram, trigram_match",0.00840336134453781,0.2,9,2,LID-DS-2021CWE-89-SQL-injection,5,True,5True
birch,"syscall_histogram, trigram_match",0.0,0.2,9,2,Juice-Shop,5,True,5True
birch,"syscall_histogram, trigram_match",0.0,0.2,9,2,CVE-2019-5418,5,True,5True
